…
Display frequencies of participation variable over time

``` r
tbl %>% group_by (year) %>% count (voted_sen) 
```

    ## # A tibble: 44 x 3
    ## # Groups:   year [12]
    ##     year voted_sen                       n
    ##    <int> <fct>                       <int>
    ##  1  2006 [Democrat / Candidate 1]    10715
    ##  2  2006 [Republican / Candidate 2]   8407
    ##  3  2006 [Other / Candidate 3]         153
    ##  4  2006 Not Sure                      292
    ##  5  2006 I Did Not Vote In This Race  2467
    ##  6  2006 <NA>                        14387
    ##  7  2007 <NA>                         9999
    ##  8  2008 [Democrat / Candidate 1]     5484
    ##  9  2008 [Republican / Candidate 2]   5918
    ## 10  2008 [Other / Candidate 3]         184
    ## # ... with 34 more rows
…
